…
Pulling and mapping other values
--------------------------------

### Damage

-   Property damage
-   Crop damage

``` r
floyd_prop_damage <- find_damage_property(storm = "Floyd-1999",
                                         dist_limit = 500)
floyd_prop_damage %>%
  select(type, fips, damage_property) %>%
  filter(!is.na(damage_property))
#> # A tibble: 125 × 3
#>                 type  fips damage_property
#>                <chr> <chr>           <dbl>
#> 1         Waterspout 12081           0e+00
#> 2        Flash Flood 24025           2e+06
#> 3        Flash Flood 24005           1e+03
#> 4        Flash Flood 24510           5e+03
#> 5        Flash Flood 24009           5e+04
#> 6        Flash Flood 24003           2e+06
#> 7        Flash Flood 24037           5e+04
#> 8        Flash Flood 50025           3e+04
#> 9  Thunderstorm Wind 12031           2e+02
#> 10 Thunderstorm Wind 12109           2e+02
#> # ... with 115 more rows
…
